<?xml version="1.0" encoding="utf-8"?>
<!-- Generator: Adobe Illustrator 18.1.0, SVG Export Plug-In . SVG Version: 6.00 Build 0)  -->
<!DOCTYPE svg PUBLIC "-//W3C//DTD SVG 1.1//EN" "http://www.w3.org/Graphics/SVG/1.1/DTD/svg11.dtd">
<svg version="1.1" id="Layer_1" xmlns="http://www.w3.org/2000/svg" xmlns:xlink="http://www.w3.org/1999/xlink" x="0px" y="0px"
	 viewBox="0 0 400 400" enable-background="new 0 0 400 400" xml:space="preserve">
<g>
	<circle fill="#b8000f" cx="199.8" cy="200.2" r="186.8"/>
	<g>
		<g>
			<circle fill="#FFFFFF" cx="199.8" cy="247.8" r="14.2"/>
			<rect x="188.8" y="138.2" fill="#FFFFFF" width="22.3" height="77.9"/>
		</g>
		<path fill="#FFFFFF" d="M199.7,82.2C134,82.4,81.8,135,81.9,200.3c0.1,67.3,54.8,118,117.7,117.8c65.2,0.2,117.9-52.3,118.2-117.6
			C318.1,136.9,266.9,82.1,199.7,82.2z M200.1,306.5c-59.9,0.1-106.3-47.9-106.6-106.2c0.2-58.9,47.3-106.2,106.1-106.4
			c58.5-0.1,106.7,46.6,106.5,106.5C306,259.5,259.1,306.4,200.1,306.5z"/>
	</g>
</g>
</svg>
