<?xml version="1.0" encoding="utf-8"?>
<!-- Generator: Adobe Illustrator 18.1.0, SVG Export Plug-In . SVG Version: 6.00 Build 0)  -->
<!DOCTYPE svg PUBLIC "-//W3C//DTD SVG 1.1//EN" "http://www.w3.org/Graphics/SVG/1.1/DTD/svg11.dtd">
<svg version="1.1" id="Layer_1" xmlns="http://www.w3.org/2000/svg" xmlns:xlink="http://www.w3.org/1999/xlink" x="0px" y="0px"
	 viewBox="0 0 400 400" enable-background="new 0 0 400 400" xml:space="preserve">
<g>
	<circle fill="#BA000E" cx="200.5" cy="200" r="186.8"/>
	<g>
		<path fill="#67A4FE" d="M268.3,151.8c-1.5-16.5-8.3-30.6-20.1-41.6c-13.3-12.4-29.2-18.3-47.4-17.3c-17.4,0.9-32.2,8-43.9,20.9
			c-10.8,11.9-16.5,26.2-16.8,42.5c-0.1,6.6,1.5,12.9,2.9,18.3c4.5,16.4,11.3,32.1,17.2,45.6c9.3,21,20.2,43.1,34.2,69.4
			c1.4,2.7,2.9,5.4,4.4,8.2l5.2,9.7l3.6-6c0.3-0.4,0.5-0.8,0.6-1.1c15.7-28.9,27.9-53.3,38.4-76.8c7.9-17.7,14.2-32.7,18.7-48.8
			C268,165.7,268.9,158.6,268.3,151.8z M204.6,182.6c-13.8,0-25-11.2-25-25c0-13.8,11.2-25,25-25c13.8,0,25,11.2,25,25
			C229.6,171.4,218.4,182.6,204.6,182.6z"/>
		<circle fill="#FFFFFF" cx="204" cy="157.7" r="25.2"/>
	</g>
</g>
</svg>
