<?xml version="1.0" encoding="utf-8"?>
<!-- Generator: Adobe Illustrator 18.1.0, SVG Export Plug-In . SVG Version: 6.00 Build 0)  -->
<!DOCTYPE svg PUBLIC "-//W3C//DTD SVG 1.1//EN" "http://www.w3.org/Graphics/SVG/1.1/DTD/svg11.dtd">
<svg version="1.1" id="Layer_1" xmlns="http://www.w3.org/2000/svg" xmlns:xlink="http://www.w3.org/1999/xlink" x="0px" y="0px"
	 viewBox="0 0 400 400" enable-background="new 0 0 400 400" xml:space="preserve">
<g>
	<circle fill="#FFB733" cx="200.1" cy="200.1" r="186.8"/>
	<g>
		<path fill="#E94C3A" d="M200.1,103.4c53.3,0,96.6,43.3,96.6,96.6c0,53.3-43.3,96.6-96.6,96.6c-53.3,0-96.6-43.3-96.6-96.6
			C103.5,146.8,146.9,103.4,200.1,103.4 M200.1,82.1c-65.2,0-118,52.8-118,118c0,65.2,52.8,118,118,118c65.2,0,118-52.8,118-118
			C318.1,134.9,265.3,82.1,200.1,82.1L200.1,82.1z"/>
		<path fill="#E94C3A" d="M275.2,274L275.2,274c-1.8,1.8-4.8,1.8-6.6,0l-71.4-71.4c-1.8-1.8-1.8-4.8,0-6.6l0,0
			c1.8-1.8,4.8-1.8,6.6,0l71.4,71.4C277,269.2,277,272.2,275.2,274z"/>
		<polygon opacity="0.5" fill="#E94C3A" points="280.9,278.1 200.4,199.1 201,88.5 272.1,116.1 299.7,161.9 307.9,209.1 		"/>
	</g>
	<path d="M138,176.6c0.8-0.1,1.7-0.3,2.5-0.4C139.6,176.2,138.8,176.3,138,176.6z"/>
	<path d="M257.4,218.8c-0.7,0.1-1.4,0.2-2.1,0.4C256,219.2,256.7,219.1,257.4,218.8z"/>
</g>
</svg>
