<?xml version="1.0" encoding="utf-8"?>
<!-- Generator: Adobe Illustrator 19.1.0, SVG Export Plug-In . SVG Version: 6.00 Build 0)  -->
<svg version="1.1" id="Layer_1" xmlns="http://www.w3.org/2000/svg" xmlns:xlink="http://www.w3.org/1999/xlink" x="0px" y="0px"
	 viewBox="0 0 85.3 85.3" style="enable-background:new 0 0 85.3 85.3;" xml:space="preserve">
<style type="text/css">
	.st0{fill:#E6E6E6;}
	.st1{fill:#FFFFFF;}
	.st2{fill:#009688;}
	.st3{fill:#30537A;}
	.st4{fill:#4172B0;}
	.st5{fill:#FFB733;}
	.st6{fill:#BA000E;}
	.st7{fill:#6F201F;}
	.st8{fill:#4A8D8A;}
	.st9{fill:#3B556C;}
	.st10{fill:#D3AF73;}
	.st11{fill:#5D432A;}
	.st12{fill:#B88554;}
	.st13{fill:#B04155;}
	.st14{fill:#67A4FE;}
	.st15{fill:#E94C3A;}
	.st16{opacity:0.5;fill:#E94C3A;}
	.st17{fill:#CCCCCC;}
	.st18{opacity:0.5;fill:#CCCCCC;}
	.st19{fill:#AF392C;}
	.st20{fill-rule:evenodd;clip-rule:evenodd;fill:#FFFFFF;}
	.st21{fill:#2D3640;}
	.st22{fill:#229297;}
	.st23{fill:#81DBDE;}
	.st24{fill:#EFC84A;}
	.st25{fill:#F16600;}
	.st26{fill:#B3B3B3;}
	.st27{fill:#FFD350;}
	.st28{fill:#178F78;}
	.st29{fill:#FEFEFE;}
	.st30{fill-rule:evenodd;clip-rule:evenodd;fill:#FFB733;}
	.st31{fill:#467BBD;}
	.st32{fill:#999999;}
	.st33{fill:#333333;}
	.st34{fill:#666666;}
</style>
<g>
    <rect class="st32" width="90" height="90"/>
	<path class="st1" d="M53.9,19.2H31.6c-1.7,0-3,1.1-3,2.5v40.9c0,1.4,1.4,2.5,3,2.5h22.4c1.7,0,3-1.1,3-2.5V21.7
		C57,20.3,55.6,19.2,53.9,19.2z M54.9,59.8H30.6V24.4h24.3V59.8z"/>
</g>
</svg>
